symbol,C,H,N,O,S,Se
A,2,4,0,0,0,0
R,5,11,3,0,0,0
N,3,5,1,1,0,0
D,3,4,0,2,0,0
C,2,4,0,0,1,0
E,4,6,0,2,0,0
Q,4,7,1,1,0,0
G,1,2,0,0,0,0
H,5,6,2,0,0,0
I,5,10,0,0,0,0
L,5,10,0,0,0,0
K,5,11,1,0,0,0
M,4,8,0,0,1,0
F,8,8,0,0,0,0
P,4,6,0,0,0,0
S,2,4,0,1,0,0
T,3,6,0,1,0,0
W,10,9,1,0,0,0
Y,8,8,0,1,0,0
V,4,8,0,0,0,0
U,2,6,0,1,0,1
O,11,20,2,2,0,0
