symbol,name
A,Alanine
R,Arginine
N,Asparagine
D,Aspartic Acid
C,Cysteine
E,Glutamic Acid
Q,Glutamine
G,Glycine
H,Histidine
I,Isoleucine
L,Leucine
K,Lysine
M,Methionine
F,Phenyalanine
P,Proline
S,Serine
T,Threonine
W,Tryptophan
Y,Tyrosine
V,Valine
U,Ubiquitine
O,Pyrrolysine
